%YAML 1.1
%TAG !u! tag:unity3d.com,2011:
--- !u!78 &1
TagManager:
  serializedVersion: 2
  tags:
  - battle_anchor
  - battle
  - battle_env
  - stage_item
  - ui_reference_root
  - loading_view
  - battle_root
  - script_loader
  - NGUIRoot
  - big_skill
  - UGUIRoot
  - UITopRoot
  - UGUIRootTop
  - UIMoveableNumber
  - UIEffect
  - GuideRoot
  - UGUIGuideRoot
  - UGUIRootMid
  - MapSceneUIRootMid
  - small_point
  - camera_skill_effect
  - PassGuide
  - quickToUseRoot
  - UIChatRoot
  - UGUITopRoot
  layers:
  - Default
  - TransparentFX
  - Ignore Raycast
  - 
  - Water
  - UI
  - 
  - 
  - PersistentLayer
  - BattlefiledCore
  - UI_Up
  - UI_Up_Top
  - skilltree
  - big_skill
  - qPlayer
  - 
  - FullScreenEffect
  - miniMap
  - miniMapNpc
  - BattlefiledShadowCaster
  - Trigger
  - all_map
  - 
  - 
  - 
  - 
  - 
  - 
  - 
  - 
  - 
  - 
  m_SortingLayers:
  - name: beijing
    uniqueID: 3137042361
    locked: 0
  - name: Default
    uniqueID: 0
    locked: 0
  - name: FullScreenEffect
    uniqueID: 1190712463
    locked: 0
  - name: UIBG
    uniqueID: 964025701
    locked: 0
